\relax 
\catcode `"\active 
\select@language{swedish}
\@writefile{toc}{\select@language{swedish}}
\@writefile{lof}{\select@language{swedish}}
\@writefile{lot}{\select@language{swedish}}
\@writefile{toc}{\contentsline {section}{\numberline {1}Introduktion}{1}}
\@writefile{toc}{\contentsline {section}{\numberline {2}Uppgift och l\IeC {\"o}sning}{1}}
\@writefile{lof}{\contentsline {figure}{\numberline {1}{\ignorespaces Backens profil kan beskrivas med ovanst\IeC {\r a}ende graf.}}{2}}
\newlabel{fig:profil}{{1}{2}}
\newlabel{eq:backe}{{1}{2}}
\newlabel{eq:allmanbacke}{{2}{2}}
\@writefile{toc}{\contentsline {subsection}{\numberline {2.1}Backens lutning vid $x = 0{,}8$}{2}}
\newlabel{sec:lutning}{{2.1}{2}}
\@writefile{toc}{\contentsline {subsection}{\numberline {2.2}Backens brantaste punkt}{3}}
\newlabel{eq:steepest}{{3}{3}}
\@writefile{toc}{\contentsline {subsection}{\numberline {2.3}Brantast vid $x = 1$}{4}}
