\relax 
\citation{koch}
\@writefile{toc}{\contentsline {section}{\numberline {1}The Koch Snowflake}{1}}
\newlabel{snowflake}{{1}{1}}
\@writefile{lof}{\contentsline {figure}{\numberline {1}{\ignorespaces The initial equilateral triangle and the refinement of the Koch snowflake after one, two, and three iterations.}}{1}}
\@writefile{toc}{\contentsline {subsection}{\numberline {1.1}Two properties}{1}}
\newlabel{NEqu}{{1}{1}}
\newlabel{LEqu}{{2}{1}}
\bibcite{koch}{1}
\newlabel{TEqu}{{3}{2}}
\newlabel{aEqu}{{4}{2}}
