\relax 
\catcode `"\active 
\select@language{swedish}
\@writefile{toc}{\select@language{swedish}}
\@writefile{lof}{\select@language{swedish}}
\@writefile{lot}{\select@language{swedish}}
\@writefile{toc}{\contentsline {section}{\numberline {1}Introduktion}{1}}
\@writefile{toc}{\contentsline {section}{\numberline {2}Uppgiften och l\IeC {\"o}sningen}{1}}
\newlabel{eq:backe}{{1}{1}}
